Guide to CombiROC package - Standard workflow • combiroc
…
Exploring the data

It is usually a good thing to visually explore your data with at least a few plots.

Box plots are a nice option to observe the distribution of measurements in each sample. The user can plot the data as she/he wishes using the preferred function: since data for CombiROC are required to be in wide (untidy) format, they cannot be plotted directly with the widely used ggplot() function. Either the user is free to make the data longer (tidy) for the sole purpose of plotting, or the package’s combiroc_long() function can be used for this purpose; this function wraps the tidyr::pivot_longer()function, and it’s used to reshape the data in long format.

Data in long format are required for the plotting functions of the package and for any other Tidyverse-oriented applications.

The data object in the original wide format can be thus transformed into the reshaped long format data_long object, and further used. See also the section “Code snippets” for some plotting examples taking advantage of the reshaped format.

data_long <- combiroc_long(data)
data_long
#> # A tibble: 850 x 4
#>    Patient.ID Class Markers Values
#>    <chr>      <chr> <chr>    <int>
#>  1 AIH1       A     Marker1    438
#>  2 AIH1       A     Marker2    187
#>  3 AIH1       A     Marker3    197
#>  4 AIH1       A     Marker4    298
#>  5 AIH1       A     Marker5    139
#>  6 AIH2       A     Marker1    345
#>  7 AIH2       A     Marker2    293
#>  8 AIH2       A     Marker3    134
#>  9 AIH2       A     Marker4    523
#> 10 AIH2       A     Marker5    335
#> # ... with 840 more rows
…
