Guide to CombiROC package - Standard workflow • combiroc
…
Data in long format are required for the plotting functions of the
package and for any other Tidyverse-oriented applications.

The data object in the original wide format can be
thus transformed into the reshaped long format
data_long object, and further used.

data_long <- combiroc_long(data)
data_long

## # A tibble: 850 × 4
##    Patient.ID Class Markers Values
##    <chr>      <chr> <chr>    <int>
##  1 AIH1       A     Marker1    438
##  2 AIH1       A     Marker2    187
##  3 AIH1       A     Marker3    197
##  4 AIH1       A     Marker4    298
##  5 AIH1       A     Marker5    139
##  6 AIH2       A     Marker1    345
##  7 AIH2       A     Marker2    293
##  8 AIH2       A     Marker3    134
##  9 AIH2       A     Marker4    523
## 10 AIH2       A     Marker5    335
## # ℹ 840 more rows
…
